{
  "repo": {
    "timestamp": 1741286507000,
    "version": 20002,
    "name": "IzzyOnDroid F-Droid Repo Archive",
    "icon": "izzy-on-droid.png",
    "description": "The repository of older versions of applications from the main IzzyOnDroid repository. This will remain empty, as old versions are not archived but purged here.",
    "address": "https://apt.izzysoft.de/fdroid/archive",
    "mirrors": [
      "https://izzy.zw.is/fdroid/archive",
      "https://packages.codeberg.org/~izzy/fdroid/archive"
    ]
  },
  "requests": {
    "install": [],
    "uninstall": []
  },
  "apps": [
    {
      "allowedAPKSigningKeys": [
        "f4794727e45416d87c487138292b709f11d1cd7dab5584d8c6857d92e066604b"
      ],
      "antiFeatures": [
        "NonFreeComp",
        "NonFreeNet"
      ],
      "authorName": "Thibault Deckers",
      "categories": [
        "Graphics"
      ],
      "suggestedVersionCode": "14201",
      "donate": "https://paypal.me/ThibaultDeckers",
      "issueTracker": "https://github.com/deckerst/aves/issues",
      "license": "BSD-3-Clause",
      "sourceCode": "https://github.com/deckerst/aves",
      "added": 1736794014000,
      "packageName": "deckers.thibault.aves",
      "lastUpdated": 1741286437000,
      "localized": {
        "en-US": {
          "name": "Aves"
        }
      }
    },
    {
      "allowedAPKSigningKeys": [
        "99341fde9f921a7e310fbedbd3fafc701b87ecafb5ef8a90385333d5b19c6b6c",
        "f6869ca47cbf0c341557ada40eb9b16300d52de6f1bc517f1b8e0f4d5f8f6852"
      ],
      "authorName": "Philip Leis",
      "categories": [
        "Internet"
      ],
      "changelog": "https://codeberg.org/phileix/ddns-android/releases",
      "suggestedVersionCode": "3",
      "issueTracker": "https://codeberg.org/phileix/ddns-android/issues",
      "license": "GPL-3.0-only",
      "sourceCode": "https://codeberg.org/phileix/ddns-android",
      "added": 1741189414000,
      "packageName": "xyz.philei.ddnsupdater",
      "lastUpdated": 1741286499000,
      "localized": {
        "en-US": {
          "name": "DDNS Updater"
        }
      }
    },
    {
      "allowedAPKSigningKeys": [
        "ea7195cfce638ae6b1a8002ddc0d4863366095ea5b8d95c1cd5e25db0fe2e7c3"
      ],
      "authorEmail": "tyhou13@gmx.com",
      "authorName": "Dessalines",
      "authorWebSite": "https://github.com/dessalines/habit-maker",
      "bitcoin": "1Hefs7miXS5ff5Ck5xvmjKjXf5242KzRtK",
      "categories": [
        "Sports & Health"
      ],
      "changelog": "https://github.com/dessalines/habit-maker/releases",
      "suggestedVersionCode": "19",
      "issueTracker": "https://github.com/dessalines/habit-maker/issues",
      "license": "AGPL-3.0-only",
      "sourceCode": "https://github.com/dessalines/habit-maker",
      "added": 1739299020000,
      "packageName": "com.dessalines.habitmaker",
      "lastUpdated": 1741286360000,
      "localized": {
        "en-US": {
          "name": "Habit-Maker"
        }
      }
    },
    {
      "allowedAPKSigningKeys": [
        "a0cfa0d1a00b9887a1701a693bdc3c2a8e84d39d8e3a98d681bd3468cb81a4db"
      ],
      "authorName": "Bastian",
      "categories": [
        "Theming"
      ],
      "changelog": "https://github.com/Kaiserdragon2/IconRequest/releases",
      "suggestedVersionCode": "27",
      "issueTracker": "https://github.com/Kaiserdragon2/IconRequest/issues",
      "license": "GPL-3.0-only",
      "sourceCode": "https://github.com/Kaiserdragon2/IconRequest",
      "added": 1729167547000,
      "packageName": "de.kaiserdragon.iconrequest",
      "lastUpdated": 1741286431000,
      "localized": {
        "en-US": {
          "name": "IconRequest"
        }
      }
    },
    {
      "allowedAPKSigningKeys": [
        "df971ce7d58d3cdf377c32e0e2f53d6599bd7f130a50c0529c45583ddc12a008"
      ],
      "authorName": "tfonteyn",
      "categories": [
        "Reading"
      ],
      "changelog": "https://github.com/tfonteyn/NeverTooManyBooks/releases",
      "suggestedVersionCode": "94",
      "issueTracker": "https://github.com/tfonteyn/NeverTooManyBooks/issues",
      "license": "GPL-3.0-only",
      "sourceCode": "https://github.com/tfonteyn/NeverTooManyBooks",
      "added": 1739299038000,
      "packageName": "com.hardbacknutter.nevertoomanybooks",
      "lastUpdated": 1741286377000,
      "localized": {
        "en-US": {
          "name": "NeverTooManyBooks"
        }
      }
    },
    {
      "allowedAPKSigningKeys": [
        "48a23ec089cbf1a50a42789dd0cc44e11399b3c13b506c09551bcebf00bedbe9"
      ],
      "authorName": "Bandeapart1964",
      "categories": [
        "Development"
      ],
      "changelog": "https://github.com/catpuppyapp/PuppyGit/releases",
      "suggestedVersionCode": "67",
      "donate": "https://github.com/catpuppyapp/PuppyGit/blob/main/donate.md",
      "issueTracker": "https://github.com/catpuppyapp/PuppyGit/issues",
      "license": "GPL-3.0-only",
      "sourceCode": "https://github.com/catpuppyapp/PuppyGit",
      "added": 1741113351000,
      "packageName": "com.catpuppyapp.puppygit.play.pro",
      "lastUpdated": 1741286353000,
      "localized": {
        "en-US": {
          "name": "PuppyGit"
        }
      }
    },
    {
      "allowedAPKSigningKeys": [
        "213a67e48d6e04f8b2e42d1d6add1e5d4d758c48a97f5feef52a9626455bc2bf"
      ],
      "authorEmail": "darkmoonight2022@gmail.com",
      "authorName": "DARK NIGHT",
      "categories": [
        "Internet"
      ],
      "suggestedVersionCode": "1038",
      "issueTracker": "https://github.com/darkmoonight/Rain/issues",
      "license": "MIT",
      "sourceCode": "https://github.com/darkmoonight/Rain",
      "added": 1725126277000,
      "packageName": "com.yoshi.rain",
      "lastUpdated": 1741286423000,
      "localized": {
        "en-US": {
          "name": "Rain"
        }
      }
    },
    {
      "allowedAPKSigningKeys": [
        "03abaaad6c5b9fbddf156cefe8c342f7fe3afd9dc7e9ae74d7b0053b20872484"
      ],
      "authorName": "shrimqy",
      "categories": [
        "Connectivity"
      ],
      "changelog": "https://github.com/shrimqy/Sefirah-Android/releases",
      "suggestedVersionCode": "5",
      "issueTracker": "https://github.com/shrimqy/Sefirah-Android/issues",
      "license": "GPL-3.0-only",
      "sourceCode": "https://github.com/shrimqy/Sefirah-Android",
      "added": 1740595002000,
      "packageName": "com.castle.sefirah",
      "lastUpdated": 1741286333000,
      "localized": {
        "en-US": {
          "name": "Sefirah"
        }
      }
    },
    {
      "allowedAPKSigningKeys": [
        "812834f0a188afdd35e5955328fb45e7ff3bd900a0c686c4505d8a86522ba00c"
      ],
      "authorEmail": "darkmoonight2022@gmail.com",
      "authorName": "DARK NIGHT",
      "categories": [
        "Time"
      ],
      "suggestedVersionCode": "2044",
      "issueTracker": "https://github.com/darkmoonight/Zest/issues",
      "license": "MIT",
      "sourceCode": "https://github.com/darkmoonight/Zest",
      "added": 1728754727000,
      "packageName": "com.yoshi.todark",
      "lastUpdated": 1741286425000,
      "localized": {
        "en-US": {
          "name": "ToDark"
        }
      }
    },
    {
      "allowedAPKSigningKeys": [
        "07bef30581baee8f45ec93e47ee68ef20874e50ef5709c78b2ee67ac86be4c3d"
      ],
      "antiFeatures": [
        "TetheredNet"
      ],
      "authorName": "Nishant Mishra",
      "categories": [
        "Reading"
      ],
      "changelog": "https://github.com/nsh07/WikiReader/releases",
      "suggestedVersionCode": "20",
      "issueTracker": "https://github.com/nsh07/WikiReader/issues",
      "license": "GPL-3.0-only",
      "sourceCode": "https://github.com/nsh07/WikiReader",
      "added": 1735497532000,
      "packageName": "org.nsh07.wikireader",
      "lastUpdated": 1741252679000,
      "localized": {
        "en-US": {
          "name": "WikiReader"
        }
      }
    }
  ],
  "packages": {
    "com.castle.sefirah": [
      {
        "added": 1740595002000,
        "apkName": "com.castle.sefirah_5.apk",
        "hash": "8ee9f39efedd83cfb376dbae4d114199f434c645b96e28bc402ffb4d5f034300",
        "hashType": "sha256",
        "minSdkVersion": 26,
        "nativecode": [
          "arm64-v8a",
          "armeabi-v7a",
          "x86",
          "x86_64"
        ],
        "packageName": "com.castle.sefirah",
        "sig": "cc46baf9d4fc82518de067ec2ca0bd10",
        "signer": "03abaaad6c5b9fbddf156cefe8c342f7fe3afd9dc7e9ae74d7b0053b20872484",
        "size": 24147570,
        "targetSdkVersion": 34,
        "uses-permission": [
          [
            "android.permission.POST_NOTIFICATIONS",
            null
          ],
          [
            "android.permission.FOREGROUND_SERVICE",
            null
          ],
          [
            "android.permission.FOREGROUND_SERVICE_DATA_SYNC",
            null
          ],
          [
            "android.permission.FOREGROUND_SERVICE_REMOTE_MESSAGING",
            null
          ],
          [
            "android.permission.BLUETOOTH",
            null
          ],
          [
            "android.permission.REQUEST_IGNORE_BATTERY_OPTIMIZATIONS",
            null
          ],
          [
            "android.permission.WRITE_EXTERNAL_STORAGE",
            null
          ],
          [
            "android.permission.FOREGROUND_SERVICE_MEDIA_PROJECTION",
            null
          ],
          [
            "android.permission.MANAGE_EXTERNAL_STORAGE",
            null
          ],
          [
            "android.permission.INTERNET",
            null
          ],
          [
            "android.permission.PROJECT_MEDIA",
            null
          ],
          [
            "android.permission.RECEIVE_SENSITIVE_NOTIFICATIONS",
            null
          ],
          [
            "android.permission.QUERY_ALL_PACKAGES",
            null
          ],
          [
            "android.permission.READ_MEDIA_IMAGES",
            null
          ],
          [
            "android.permission.READ_EXTERNAL_STORAGE",
            32
          ],
          [
            "android.permission.ACCESS_WIFI_STATE",
            null
          ],
          [
            "android.permission.CHANGE_WIFI_STATE",
            null
          ],
          [
            "android.permission.ACCESS_NETWORK_STATE",
            null
          ],
          [
            "android.permission.CHANGE_WIFI_MULTICAST_STATE",
            null
          ],
          [
            "android.permission.ACCESS_FINE_LOCATION",
            null
          ],
          [
            "android.permission.ACCESS_BACKGROUND_LOCATION",
            null
          ],
          [
            "android.permission.ACCESS_COARSE_LOCATION",
            null
          ],
          [
            "android.permission.WAKE_LOCK",
            null
          ],
          [
            "android.permission.RECEIVE_BOOT_COMPLETED",
            null
          ],
          [
            "com.castle.sefirah.DYNAMIC_RECEIVER_NOT_EXPORTED_PERMISSION",
            null
          ]
        ],
        "versionCode": 5,
        "versionName": "1.0.4"
      }
    ],
    "com.catpuppyapp.puppygit.play.pro": [
      {
        "added": 1741113351000,
        "apkName": "com.catpuppyapp.puppygit.play.pro_67.apk",
        "hash": "a7595230974921edced071925cbb8b7d00cde3ea55be9378385d00edcae2dd69",
        "hashType": "sha256",
        "minSdkVersion": 26,
        "nativecode": [
          "arm64-v8a",
          "armeabi-v7a",
          "x86",
          "x86_64"
        ],
        "packageName": "com.catpuppyapp.puppygit.play.pro",
        "sig": "ac8aef46625eb0afffc04df5c1cb146e",
        "signer": "48a23ec089cbf1a50a42789dd0cc44e11399b3c13b506c09551bcebf00bedbe9",
        "size": 36384265,
        "targetSdkVersion": 35,
        "uses-permission": [
          [
            "android.permission.INTERNET",
            null
          ],
          [
            "android.permission.ACCESS_NETWORK_STATE",
            null
          ],
          [
            "android.permission.POST_NOTIFICATIONS",
            null
          ],
          [
            "android.permission.WRITE_EXTERNAL_STORAGE",
            null
          ],
          [
            "android.permission.READ_EXTERNAL_STORAGE",
            null
          ],
          [
            "android.permission.MANAGE_EXTERNAL_STORAGE",
            null
          ],
          [
            "android.permission.FOREGROUND_SERVICE",
            null
          ],
          [
            "android.permission.FOREGROUND_SERVICE_SPECIAL_USE",
            null
          ],
          [
            "android.permission.RECEIVE_BOOT_COMPLETED",
            null
          ],
          [
            "android.permission.QUERY_ALL_PACKAGES",
            null
          ],
          [
            "com.catpuppyapp.puppygit.play.pro.DYNAMIC_RECEIVER_NOT_EXPORTED_PERMISSION",
            null
          ]
        ],
        "versionCode": 67,
        "versionName": "1.0.9.1"
      }
    ],
    "com.dessalines.habitmaker": [
      {
        "added": 1739299020000,
        "apkName": "com.dessalines.habitmaker_19.apk",
        "hash": "01e398d87073af465b928e0f7e97ec6534a6005cc0afc74097f856d989b173a0",
        "hashType": "sha256",
        "minSdkVersion": 26,
        "nativecode": [
          "arm64-v8a",
          "armeabi-v7a",
          "x86",
          "x86_64"
        ],
        "packageName": "com.dessalines.habitmaker",
        "sig": "06b9ddaa3797d90c9dc6d20d3d21ee43",
        "signer": "ea7195cfce638ae6b1a8002ddc0d4863366095ea5b8d95c1cd5e25db0fe2e7c3",
        "size": 2550579,
        "targetSdkVersion": 35,
        "uses-permission": [
          [
            "android.permission.POST_NOTIFICATIONS",
            null
          ],
          [
            "android.permission.WAKE_LOCK",
            null
          ],
          [
            "android.permission.RECEIVE_BOOT_COMPLETED",
            null
          ],
          [
            "android.permission.FOREGROUND_SERVICE",
            null
          ],
          [
            "com.dessalines.habitmaker.DYNAMIC_RECEIVER_NOT_EXPORTED_PERMISSION",
            null
          ]
        ],
        "versionCode": 19,
        "versionName": "0.0.19"
      }
    ],
    "com.hardbacknutter.nevertoomanybooks": [
      {
        "added": 1739299038000,
        "apkName": "com.hardbacknutter.nevertoomanybooks_94.apk",
        "hash": "2acb786a9752d9abf895973b727be2e6021a2d7399a0ecd23ea436256ebd79ca",
        "hashType": "sha256",
        "minSdkVersion": 26,
        "nativecode": [
          "arm64-v8a",
          "armeabi-v7a",
          "x86",
          "x86_64"
        ],
        "packageName": "com.hardbacknutter.nevertoomanybooks",
        "sig": "896214d6cf25eb0e4df0e5758c3bd12e",
        "signer": "df971ce7d58d3cdf377c32e0e2f53d6599bd7f130a50c0529c45583ddc12a008",
        "size": 4211041,
        "targetSdkVersion": 35,
        "uses-permission": [
          [
            "android.permission.INTERNET",
            null
          ],
          [
            "android.permission.ACCESS_NETWORK_STATE",
            null
          ],
          [
            "android.permission.ACCESS_WIFI_STATE",
            null
          ],
          [
            "android.permission.CAMERA",
            null
          ],
          [
            "android.permission.POST_NOTIFICATIONS",
            null
          ],
          [
            "android.permission.READ_CONTACTS",
            null
          ],
          [
            "com.hardbacknutter.nevertoomanybooks.DYNAMIC_RECEIVER_NOT_EXPORTED_PERMISSION",
            null
          ]
        ],
        "versionCode": 94,
        "versionName": "7.0.3"
      }
    ],
    "com.yoshi.rain": [
      {
        "added": 1725126277000,
        "apkName": "com.yoshi.rain_1038.apk",
        "hash": "6148847ac78ba71d0d23f32de6d3b912eea45de30e7b6e2d7c098caa0bfde7eb",
        "hashType": "sha256",
        "minSdkVersion": 23,
        "nativecode": [
          "armeabi-v7a"
        ],
        "packageName": "com.yoshi.rain",
        "sig": "293b0f696b45b35f985b85d6df392e05",
        "signer": "213a67e48d6e04f8b2e42d1d6add1e5d4d758c48a97f5feef52a9626455bc2bf",
        "size": 15196529,
        "targetSdkVersion": 34,
        "uses-permission": [
          [
            "android.permission.INTERNET",
            null
          ],
          [
            "android.permission.ACCESS_FINE_LOCATION",
            null
          ],
          [
            "android.permission.ACCESS_COARSE_LOCATION",
            null
          ],
          [
            "android.permission.RECEIVE_BOOT_COMPLETED",
            null
          ],
          [
            "android.permission.SCHEDULE_EXACT_ALARM",
            null
          ],
          [
            "android.permission.ACCESS_NETWORK_STATE",
            null
          ],
          [
            "android.permission.VIBRATE",
            null
          ],
          [
            "android.permission.POST_NOTIFICATIONS",
            null
          ],
          [
            "android.permission.WAKE_LOCK",
            null
          ],
          [
            "android.permission.FOREGROUND_SERVICE",
            null
          ],
          [
            "com.yoshi.rain.DYNAMIC_RECEIVER_NOT_EXPORTED_PERMISSION",
            null
          ]
        ],
        "versionCode": 1038,
        "versionName": "1.3.5"
      }
    ],
    "com.yoshi.todark": [
      {
        "added": 1728754727000,
        "apkName": "com.yoshi.todark_2044.apk",
        "hash": "d739f0d101816acd330824211a9321a2c0bf22f196d36eda52f8a0ad8f62912d",
        "hashType": "sha256",
        "minSdkVersion": 23,
        "nativecode": [
          "arm64-v8a"
        ],
        "packageName": "com.yoshi.todark",
        "sig": "500230688c2fa1b1149fac1ea0db1590",
        "signer": "812834f0a188afdd35e5955328fb45e7ff3bd900a0c686c4505d8a86522ba00c",
        "size": 13517226,
        "targetSdkVersion": 34,
        "uses-permission": [
          [
            "android.permission.RECEIVE_BOOT_COMPLETED",
            null
          ],
          [
            "android.permission.SCHEDULE_EXACT_ALARM",
            null
          ],
          [
            "android.permission.VIBRATE",
            null
          ],
          [
            "android.permission.POST_NOTIFICATIONS",
            null
          ],
          [
            "android.permission.WAKE_LOCK",
            null
          ],
          [
            "android.permission.FOREGROUND_SERVICE",
            null
          ],
          [
            "com.yoshi.todark.DYNAMIC_RECEIVER_NOT_EXPORTED_PERMISSION",
            null
          ]
        ],
        "versionCode": 2044,
        "versionName": "1.5.4"
      }
    ],
    "de.kaiserdragon.iconrequest": [
      {
        "added": 1729167547000,
        "apkName": "de.kaiserdragon.iconrequest_27.apk",
        "hash": "f37496b8a93e4f791e2e1637bf80042057eef59afb840add5813a3043f5ee9b4",
        "hashType": "sha256",
        "minSdkVersion": 23,
        "packageName": "de.kaiserdragon.iconrequest",
        "sig": "1d46e37e2a1af76475822c3ba8f04816",
        "signer": "a0cfa0d1a00b9887a1701a693bdc3c2a8e84d39d8e3a98d681bd3468cb81a4db",
        "size": 2426624,
        "targetSdkVersion": 35,
        "uses-permission": [
          [
            "de.kaiserdragon.iconrequest.DYNAMIC_RECEIVER_NOT_EXPORTED_PERMISSION",
            null
          ]
        ],
        "versionCode": 27,
        "versionName": "2.5.5"
      }
    ],
    "deckers.thibault.aves": [
      {
        "added": 1736794014000,
        "apkName": "deckers.thibault.aves_14201.apk",
        "hash": "b9ec10a29aa81046d97da44f3be8e2f2d08c45478797d2c6da913da8bdaddab8",
        "hashType": "sha256",
        "minSdkVersion": 21,
        "nativecode": [
          "armeabi-v7a"
        ],
        "packageName": "deckers.thibault.aves",
        "sig": "7071c0a7234d7065f358c905e554f787",
        "signer": "f4794727e45416d87c487138292b709f11d1cd7dab5584d8c6857d92e066604b",
        "size": 24544881,
        "targetSdkVersion": 35,
        "uses-permission": [
          [
            "android.permission.READ_MEDIA_VISUAL_USER_SELECTED",
            null
          ],
          [
            "android.permission.READ_MEDIA_IMAGES",
            null
          ],
          [
            "android.permission.READ_MEDIA_VIDEO",
            null
          ],
          [
            "android.permission.READ_EXTERNAL_STORAGE",
            32
          ],
          [
            "android.permission.WRITE_EXTERNAL_STORAGE",
            29
          ],
          [
            "android.permission.ACCESS_MEDIA_LOCATION",
            null
          ],
          [
            "android.permission.FOREGROUND_SERVICE_DATA_SYNC",
            34
          ],
          [
            "android.permission.FOREGROUND_SERVICE_MEDIA_PROCESSING",
            null
          ],
          [
            "android.permission.INTERNET",
            null
          ],
          [
            "android.permission.MANAGE_MEDIA",
            null
          ],
          [
            "android.permission.POST_NOTIFICATIONS",
            null
          ],
          [
            "android.permission.SET_WALLPAPER",
            null
          ],
          [
            "android.permission.WAKE_LOCK",
            null
          ],
          [
            "com.android.launcher.permission.INSTALL_SHORTCUT",
            25
          ],
          [
            "android.permission.ACCESS_NETWORK_STATE",
            null
          ],
          [
            "android.permission.USE_BIOMETRIC",
            null
          ],
          [
            "android.permission.ACCESS_WIFI_STATE",
            null
          ],
          [
            "android.permission.USE_FINGERPRINT",
            null
          ],
          [
            "android.permission.RECEIVE_BOOT_COMPLETED",
            null
          ],
          [
            "android.permission.FOREGROUND_SERVICE",
            null
          ],
          [
            "deckers.thibault.aves.DYNAMIC_RECEIVER_NOT_EXPORTED_PERMISSION",
            null
          ]
        ],
        "versionCode": 14201,
        "versionName": "1.12.2"
      }
    ],
    "org.nsh07.wikireader": [
      {
        "added": 1735497532000,
        "apkName": "org.nsh07.wikireader_20.apk",
        "hash": "2ebd537ccf3bb03b2a78c8c50bff5a6e1f2a9e89e1017af1899a598da70f7cce",
        "hashType": "sha256",
        "minSdkVersion": 26,
        "nativecode": [
          "arm64-v8a",
          "armeabi-v7a",
          "x86",
          "x86_64"
        ],
        "packageName": "org.nsh07.wikireader",
        "sig": "2aa47ff2d6ad9a68f9eb16e4c7f21bbe",
        "signer": "07bef30581baee8f45ec93e47ee68ef20874e50ef5709c78b2ee67ac86be4c3d",
        "size": 8427837,
        "targetSdkVersion": 35,
        "uses-permission": [
          [
            "android.permission.INTERNET",
            null
          ],
          [
            "org.nsh07.wikireader.DYNAMIC_RECEIVER_NOT_EXPORTED_PERMISSION",
            null
          ]
        ],
        "versionCode": 20,
        "versionName": "1.9.0"
      }
    ],
    "xyz.philei.ddnsupdater": [
      {
        "added": 1741189414000,
        "apkName": "xyz.philei.ddnsupdater_3.apk",
        "hash": "25446c6cee27505eb08eaca56ee3e8a3a9d9cff759373c7af1c6c015a36638d7",
        "hashType": "sha256",
        "minSdkVersion": 30,
        "nativecode": [
          "arm64-v8a",
          "armeabi-v7a",
          "x86",
          "x86_64"
        ],
        "packageName": "xyz.philei.ddnsupdater",
        "sig": "c78a1f0f95f1502bebf3bc5df09103d6",
        "signer": "f6869ca47cbf0c341557ada40eb9b16300d52de6f1bc517f1b8e0f4d5f8f6852",
        "size": 24621187,
        "targetSdkVersion": 35,
        "uses-permission": [
          [
            "android.permission.INTERNET",
            null
          ],
          [
            "xyz.philei.ddnsupdater.DYNAMIC_RECEIVER_NOT_EXPORTED_PERMISSION",
            null
          ]
        ],
        "versionCode": 3,
        "versionName": "0.1.4"
      }
    ]
  }
}